Intro2R-spatial
…
# Landscape metrics

.left-column[ 
### <span style="color:grey">Load</span>
### Analyse
]
.right-column[
__List all available metrics__

```r
list_lsm()
```

```
## # A tibble: 132 x 5
##    metric name                            type               level function_name
##    <chr>  <chr>                           <chr>              <chr> <chr>        
##  1 area   patch area                      area and edge met… patch lsm_p_area   
##  2 cai    core area index                 core area metric   patch lsm_p_cai    
##  3 circle related circumscribing circle   shape metric       patch lsm_p_circle 
##  4 contig contiguity index                shape metric       patch lsm_p_contig 
##  5 core   core area                       core area metric   patch lsm_p_core   
##  6 enn    euclidean nearest neighbor dis… aggregation metric patch lsm_p_enn    
##  7 frac   fractal dimension index         shape metric       patch lsm_p_frac   
##  8 gyrate radius of gyration              area and edge met… patch lsm_p_gyrate 
##  9 ncore  number of core areas            core area metric   patch lsm_p_ncore  
## 10 para   perimeter-area ratio            shape metric       patch lsm_p_para   
## # … with 122 more rows
```
…
# Landscape metrics

.left-column[ 
### <span style="color:grey">Load</span>
### Analyse
]
.right-column[
__Patch-level__

```r
lsm_p_area(landsatCover)
```

```
## # A tibble: 12,580 x 6
##    layer level class    id metric value
##    <int> <chr> <int> <int> <chr>  <dbl>
##  1     1 patch     1     1 area   14.6 
##  2     1 patch     1     2 area    0.09
##  3     1 patch     1     3 area   27.3 
##  4     1 patch     1     4 area    0.09
##  5     1 patch     1     5 area    0.18
##  6     1 patch     1     6 area    0.36
##  7     1 patch     1     7 area    0.09
##  8     1 patch     1     8 area    0.09
##  9     1 patch     1     9 area    0.09
## 10     1 patch     1    10 area    0.09
## # … with 12,570 more rows
```
…
```r
calculate_lsm(landsatCover, 
              level = "class",
              type = "aggregation metric",
              full_name = TRUE) #include info about metrics in results
```

```
## # A tibble: 45 x 9
##    layer level class    id metric   value name         type        function_name
##    <int> <chr> <int> <int> <chr>    <dbl> <chr>        <chr>       <chr>        
##  1     1 class     1    NA ai      88.4   aggregation… aggregatio… lsm_c_ai     
##  2     1 class     2    NA ai      79.5   aggregation… aggregatio… lsm_c_ai     
##  3     1 class     3    NA ai      87.8   aggregation… aggregatio… lsm_c_ai     
##  4     1 class     1    NA clumpy   0.889 clumpiness … aggregatio… lsm_c_clumpy 
##  5     1 class     2    NA clumpy   0.687 clumpiness … aggregatio… lsm_c_clumpy 
##  6     1 class     3    NA clumpy   0.735 clumpiness … aggregatio… lsm_c_clumpy 
##  7     1 class     1    NA cohesi… 95.5   patch cohes… aggregatio… lsm_c_cohesi…
##  8     1 class     2    NA cohesi… 99.2   patch cohes… aggregatio… lsm_c_cohesi…
##  9     1 class     3    NA cohesi… 99.8   patch cohes… aggregatio… lsm_c_cohesi…
## 10     1 class     1    NA divisi…  1.00  division in… aggregatio… lsm_c_divisi…
## # … with 35 more rows
```
…
